{
    "home" : {
        "content" : {
            "name" : "Jaime Garzon",
            "profession" : "Software engineer",
            "resume" : "document/resume.pdf"
        },
        "image" : "img/profile.png"
    },
    "about" : {
        "image" : "img/about.jpeg",
        "carousel" : {
            "1" : {
                "name" : "About",
                "paragraph": {
                    "one" : "Lorem ipsum dolor sit amet, consectetur adipiscing elit, sed do eiusmod tempor incididunt ut labore et dolore magna aliqua. Mattis rhoncus urna neque viverra justo nec. Turpis nunc eget lorem dolor sed viverra. Elementum tempus egestas sed sed risus pretium quam vulputate. Diam quam nulla porttitor massa id.",
                    "two" : "Fringilla ut morbi tincidunt augue. Semper eget duis at tellus at urna condimentum. Maecenas volutpat blandit aliquam etiam erat velit. Leo urna molestie at elementum eu. Eu lobortis elementum nibh tellus. Interdum varius sit amet mattis vulputate enim nulla. Enim eu turpis egestas pretium aenean."
                }
            },
            "2" : {
                "name" : "Education",
                "paragraph": {
                    "one" : "Lorem ipsum dolor sit amet, consectetur adipiscing elit, sed do eiusmod tempor incididunt ut labore et dolore magna aliqua. Mattis rhoncus urna neque viverra justo nec. Turpis nunc eget lorem dolor sed viverra. Elementum tempus egestas sed sed risus pretium quam vulputate. Diam quam nulla porttitor massa id.",
                    "two" : "Fringilla ut morbi tincidunt augue. Semper eget duis at tellus at urna condimentum. Maecenas volutpat blandit aliquam etiam erat velit. Leo urna molestie at elementum eu. Eu lobortis elementum nibh tellus. Interdum varius sit amet mattis vulputate enim nulla. Enim eu turpis egestas pretium aenean."
                }
            },
            "3" : {
                "name" : "Experience",
                "paragraph": {
                    "one" : "Lorem ipsum dolor sit amet, consectetur adipiscing elit, sed do eiusmod tempor incididunt ut labore et dolore magna aliqua. Mattis rhoncus urna neque viverra justo nec. Turpis nunc eget lorem dolor sed viverra. Elementum tempus egestas sed sed risus pretium quam vulputate. Diam quam nulla porttitor massa id.",
                    "two" : "Fringilla ut morbi tincidunt augue. Semper eget duis at tellus at urna condimentum. Maecenas volutpat blandit aliquam etiam erat velit. Leo urna molestie at elementum eu. Eu lobortis elementum nibh tellus. Interdum varius sit amet mattis vulputate enim nulla. Enim eu turpis egestas pretium aenean."
                }
            }
        }
    },
    "skills" : {
        "image" : "img/negative-space.jpg",
        "content" : {
            "skill-set-1" : {
                "name" : "Frontend",
                "list" : {
                    "1" : {
                        "name" : "",
                        "percentage" : ""
                    },
                    "2" : {
                        "name" : "",
                        "percentage" : ""
                    },
                    "3" : {
                        "name" : "",
                        "percentage" : ""
                    },
                    "4" : {
                        "name" : "",
                        "percentage" : ""
                    }
                }
            },
            "skill-set-2" : {
                "name" : "Backend",
                "list" :  {
                    "1" : {
                        "name" : "",
                        "percentage" : ""
                    },
                    "2" : {
                        "name" : "",
                        "percentage" : ""
                    },
                    "3" : {
                        "name" : "",
                        "percentage" : ""
                    },
                    "4" : {
                        "name" : "",
                        "percentage" : ""
                    }
                }
            }
        }
    },
    "projects" : {
        "1" : {
            "type" : "",
            "name" : "",
            "video" : "",
            "description" : "",
            "url" : ""
        },
        "2" : {
            "type" : "",
            "name" : "",
            "video" : "",
            "description" : "",
            "url" : ""
        },
        "3" : {
            "type" : "",
            "name" : "",
            "video" : "",
            "description" : "",
            "url" : ""
        },
        "4" : {
            "type" : "",
            "name" : "",
            "video" : "",
            "description" : "",
            "url" : ""
        },
        "5" : {
            "type" : "",
            "name" : "",
            "video" : "",
            "description" : "",
            "url" : ""
        },
        "6" : {
            "type" : "",
            "name" : "",
            "video" : "",
            "description" : "",
            "url" : ""
        }
    },
    "contact" : {
        "name" : "Jaime Garzon",
        "socials" : {
            "1" : "",
            "2" : "",
            "3" : ""
        }
    }
}